R: Tidyverse
…
Paracou15 %>% select(SubPlot:Yfield, Family:Species, 
    CircCorr) %>% ncol

## [1] 12

Remarquer : ncol() est une fonction de base, pas du tidyverse.

Ajouter des variables calcules (mutate)

Des colonnes sont ajoutes au tibble

(Paracou15Taille <- Paracou15 %>% select(idTree, CircCorr) %>% 
    mutate(Diametre = CircCorr/pi))

## # A tibble: 4,151 x 3
##   idTree CircCorr Diametre
##    <int>    <dbl>    <dbl>
## 1 145312     65       20.7
## 2 145313     78       24.8
## 3 145314    172.      54.6
## 4 145315     49       15.6
## 5 145316     57.5     18.3
## # ... with 4,146 more rows

Remarquer : le pipe bidirectionnel, les parenthses pour print()

Trier les lignes (arrange)

Afficher les plus gros arbres de la parcelle :

Paracou15Taille %>% arrange(desc(CircCorr))

## # A tibble: 4,151 x 3
##   idTree CircCorr Diametre
##    <int>    <dbl>    <dbl>
## 1 145508      332    106. 
## 2 145326      275     87.5
## 3 145658      273     86.9
## 4 146314      270     85.9
## 5 147958      258     82.1
## # ... with 4,146 more rows

Regrouper et rsumer

Quel est le diamtre moyen des arbres par famille ?

Paracou15 %>% group_by(Family) %>% summarise(Dmean = mean(CircCorr)/pi, 
    NbTrees = length(idTree)) %>% arrange(desc(Dmean))

## # A tibble: 56 x 3
##   Family        Dmean NbTrees
##   <chr>         <dbl>   <int>
## 1 Loganiaceae    54.3       4
## 2 Nyctaginaceae  50.1       2
## 3 Araliaceae     31.9       4
## 4 Goupiaceae     31.7      11
## 5 Vochysiaceae   30.4       6
## # ... with 51 more rows
…
